0	0.000000
1	0.000000
2	0.000000
3	0.000000
4	0.000000
5	0.035000
6	0.240134
7	0.318286
8	0.238178
9	0.119841
10	0.043309
11	0.012017
12	0.002728
13	0.000745
14	0.000733
15	0.001067
16	0.001495
17	0.001861
18	0.002211
19	0.002528
20	0.002870
21	0.003202
22	0.003547
23	0.003958
24	0.004270
25	0.004589
26	0.004888
27	0.005286
28	0.005712
29	0.006092
30	0.006511
31	0.006895
32	0.007347
33	0.007781
34	0.007995
35	0.008469
36	0.008789
37	0.009239
38	0.009758
39	0.010153
40	0.010712
41	0.011173
42	0.011692
43	0.012217
44	0.012770
45	0.013198
46	0.013822
47	0.014577
48	0.015064
49	0.015673
50	0.016316
51	0.016909
52	0.017592
53	0.018380
54	0.019225
55	0.019909
56	0.020698
57	0.021298
58	0.021989
59	0.022838
60	0.023689
61	0.024716
62	0.025325
63	0.026197
64	0.026906
65	0.027717
66	0.028589
67	0.029487
68	0.030608
69	0.031294
70	0.032247
71	0.033052
72	0.033884
73	0.034827
74	0.035753
75	0.036917
76	0.037795
77	0.038777
78	0.039698
79	0.040659
80	0.041639
81	0.042595
82	0.043859
83	0.044725
84	0.045562
85	0.046298
86	0.047259
87	0.048106
88	0.049063
89	0.050373
90	0.051369
91	0.052264
92	0.053091
93	0.054120
94	0.054961
95	0.055942
96	0.057166
97	0.058214
98	0.059037
99	0.059764
100	0.060780
101	0.061717
102	0.062658
103	0.063773
104	0.064908
105	0.065692
106	0.066431
107	0.067377
108	0.068358
109	0.069312
110	0.070481
111	0.071534
112	0.072450
113	0.073209
114	0.074019
115	0.075186
116	0.075861
117	0.077055
118	0.078091
119	0.078980
120	0.079783
121	0.080550
122	0.081369
123	0.082181
124	0.083266
125	0.084420
126	0.085378
127	0.085913
128	0.086395
129	0.087419
130	0.088195
131	0.089228
132	0.090367
133	0.091373
134	0.091891
135	0.092309
136	0.093427
137	0.094169
138	0.095242
139	0.096366
140	0.097347
141	0.097789
142	0.098075
143	0.099278
144	0.099964
145	0.101078
146	0.102147
147	0.103195
148	0.103706
149	0.103886
150	0.105098
151	0.105705
152	0.106830
153	0.107855
154	0.108866
155	0.109356
156	0.109650
157	0.110400
158	0.110613
159	0.111350
160	0.112370
161	0.113409
162	0.113611
163	0.113922
164	0.114705
165	0.114869
166	0.115492
167	0.116650
168	0.117669
169	0.117817
170	0.117967
171	0.118591
172	0.118897
173	0.119189
174	0.120250
175	0.121030
176	0.121184
177	0.121220
178	0.121744
179	0.122203
180	0.122267
181	0.123438
182	0.123975
183	0.124367
184	0.124313
185	0.124706
186	0.125208
187	0.125125
188	0.126405
189	0.126905
190	0.127228
191	0.127216
192	0.127547
193	0.128045
194	0.127966
195	0.129153
196	0.129606
197	0.129966
198	0.129992
199	0.130117
200	0.130353
201	0.130380
202	0.131611
203	0.131895
204	0.132272
205	0.132256
206	0.132334
207	0.132386
208	0.132416
209	0.133569
210	0.133986
211	0.134441
212	0.134289
213	0.134453
214	0.134606
215	0.134689
216	0.135567
217	0.135850
218	0.136400
219	0.136300
220	0.136494
221	0.136620
222	0.136653
223	0.137592
224	0.137752
225	0.138084
226	0.138083
227	0.138233
228	0.138280
229	0.138211
230	0.139191
231	0.139348
232	0.139466
233	0.139477
234	0.139689
235	0.139816
236	0.139564
237	0.140539
238	0.140711
239	0.141014
240	0.140877
241	0.141077
242	0.141200
243	0.140830
244	0.141791
245	0.141928
246	0.142367
247	0.142098
248	0.142186
249	0.142259
250	0.141864
251	0.142692
252	0.142869
253	0.143331
254	0.143109
255	0.143012
256	0.143133
257	0.142745
258	0.143434
259	0.143755
260	0.144247
261	0.143917
262	0.143753
263	0.143898
264	0.143209
265	0.143627
266	0.143869
267	0.144439
268	0.144045
269	0.143830
270	0.144133
271	0.143170
272	0.143730
273	0.143962
274	0.144434
275	0.144295
276	0.143838
277	0.144327
278	0.143159
279	0.143667
280	0.144033
281	0.144402
282	0.144278
283	0.143769
284	0.144473
285	0.143156
286	0.143697
287	0.144047
288	0.144441
289	0.144439
290	0.143803
291	0.144500
292	0.143116
293	0.143753
294	0.144025
295	0.144441
296	0.144444
297	0.143792
298	0.144427
299	0.143186
300	0.143809
301	0.144084
302	0.144384
303	0.144506
304	0.143916
305	0.144323
306	0.143178
307	0.043845
308	0.068294
309	0.107128
310	0.141156
311	0.148789
312	0.155834
313	0.108878
314	0.072855
315	0.077586
316	0.115059
317	0.146777
318	0.159802
319	0.133687
320	0.095109
321	0.078630
322	0.088183
323	0.126341
324	0.159087
325	0.149036
326	0.113342
327	0.089630
328	0.082828
329	0.100513
330	0.143369
331	0.159731
332	0.129909
333	0.101420
334	0.087355
335	0.089048
336	0.117781
337	0.156464
338	0.146284
339	0.114436
340	0.095009
341	0.088481
342	0.098967
343	0.136077
344	0.157595
345	0.128567
346	0.104752
347	0.092105
348	0.091972
349	0.113484
350	0.151216
351	0.144803
352	0.115097
353	0.098323
354	0.092394
355	0.099819
356	0.131017
357	0.153081
358	0.129155
359	0.106470
360	0.094756
361	0.095373
362	0.113223
363	0.144159
364	0.143356
365	0.117156
366	0.100530
367	0.093856
368	0.102386
369	0.127975
370	0.148044
371	0.129570
372	0.108873
373	0.097902
374	0.096191
375	0.112644
376	0.140134
377	0.141170
378	0.118831
379	0.102692
380	0.097686
381	0.101969
382	0.124908
383	0.144187
384	0.130448
385	0.110336
386	0.099730
387	0.099841
388	0.110811
389	0.135522
390	0.139792
391	0.119495
392	0.104722
393	0.099447
394	0.104361
395	0.121942
396	0.140691
397	0.129631
398	0.111411
399	0.102802
400	0.100884
401	0.111731
402	0.131784
403	0.136919
404	0.120286
405	0.107231
406	0.101366
407	0.104589
408	0.121306
409	0.136817
410	0.128792
411	0.113898
412	0.104258
413	0.101464
414	0.112187
415	0.129445
416	0.134248
417	0.121400
418	0.108861
419	0.102409
420	0.105620
421	0.120458
422	0.133859
423	0.128480
424	0.114363
425	0.106075
426	0.102806
427	0.111309
428	0.128370
429	0.133105
430	0.121003
431	0.110333
432	0.104564
433	0.105109
434	0.119072
435	0.132278
436	0.128445
437	0.115578
438	0.107098
439	0.104500
440	0.110147
441	0.126205
442	0.131716
443	0.122141
444	0.111153
445	0.105719
446	0.106692
447	0.116900
448	0.130319
449	0.127620
450	0.116797
451	0.107691
452	0.106502
453	0.110630
454	0.124327
455	0.129259
456	0.122322
457	0.112728
458	0.106695
459	0.107716
460	0.116855
461	0.127842
462	0.126175
463	0.118116
464	0.109373
465	0.106845
466	0.111330
467	0.123014
468	0.127453
469	0.122817
470	0.113231
471	0.107527
472	0.108455
473	0.116931
474	0.125456
475	0.125742
476	0.118450
477	0.110895
478	0.107091
479	0.112103
480	0.120680
481	0.126850
482	0.122419
483	0.114816
484	0.108936
485	0.108741
486	0.115642
487	0.124325
488	0.125498
489	0.118558
490	0.112005
491	0.108303
492	0.111825
493	0.120186
494	0.125502
495	0.122320
496	0.115273
497	0.108833
498	0.110073
499	0.115905
500	0.123106
501	0.124516
502	0.119248
503	0.111591
504	0.109548
505	0.112686
506	0.118969
507	0.124236
508	0.121983
509	0.116130
510	0.110088
511	0.110764
512	0.115206
513	0.121770
514	0.123780
515	0.120084
516	0.112395
517	0.110236
518	0.112397
519	0.118555
520	0.123283
521	0.122313
522	0.116345
523	0.111375
524	0.110752
525	0.114809
526	0.120789
527	0.123200
528	0.119642
529	0.113891
530	0.111216
531	0.112572
532	0.117447
533	0.121737
534	0.122189
535	0.117337
536	0.111491
537	0.111658
538	0.114617
539	0.120039
540	0.122786
541	0.120303
542	0.114017
543	0.111498
544	0.112723
545	0.116989
546	0.121877
547	0.121536
548	0.117517
549	0.112369
550	0.112200
551	0.113653
552	0.119764
553	0.122250
554	0.119480
555	0.115239
556	0.112353
557	0.113458
558	0.115833
559	0.121302
560	0.121477
561	0.117303
562	0.113598
563	0.112578
564	0.115263
565	0.117764
566	0.121542
567	0.119538
568	0.115241
569	0.113127
570	0.113994
571	0.116523
572	0.119788
573	0.120641
574	0.117366
575	0.113756
576	0.113412
577	0.115794
578	0.117573
579	0.120836
580	0.119039
581	0.115522
582	0.113353
583	0.114716
584	0.116173
585	0.119237
586	0.119987
587	0.118514
588	0.113011
589	0.114047
590	0.115161
591	0.118195
592	0.119594
593	0.120284
594	0.115336
595	0.113339
596	0.114014
597	0.116692
598	0.118664
599	0.120506
