0	0.000000
1	0.000000
2	0.000000
3	0.035000
4	0.239372
5	0.316878
6	0.238428
7	0.120836
8	0.044606
9	0.012475
10	0.003297
11	0.001761
12	0.001764
13	0.002075
14	0.002358
15	0.002591
16	0.002889
17	0.003236
18	0.003556
19	0.003880
20	0.004223
21	0.004556
22	0.004869
23	0.005141
24	0.005516
25	0.005908
26	0.006281
27	0.006659
28	0.007052
29	0.007455
30	0.008017
31	0.008488
32	0.008972
33	0.009430
34	0.009878
35	0.010433
36	0.010817
37	0.011131
38	0.011520
39	0.012036
40	0.012756
41	0.013192
42	0.013884
43	0.014584
44	0.015134
45	0.015848
46	0.016331
47	0.017227
48	0.017881
49	0.018531
50	0.019406
51	0.020000
52	0.020986
53	0.021755
54	0.022513
55	0.023459
56	0.024170
57	0.025192
58	0.026081
59	0.026966
60	0.027995
61	0.028795
62	0.029900
63	0.030823
64	0.031753
65	0.032917
66	0.033789
67	0.034967
68	0.035994
69	0.036970
70	0.038216
71	0.038997
72	0.040205
73	0.041331
74	0.042347
75	0.043769
76	0.044573
77	0.045825
78	0.047080
79	0.048084
80	0.049608
81	0.050408
82	0.051736
83	0.053091
84	0.053742
85	0.055250
86	0.056155
87	0.057283
88	0.058723
89	0.060009
90	0.061616
91	0.062597
92	0.063739
93	0.065228
94	0.066497
95	0.068250
96	0.069336
97	0.070486
98	0.071778
99	0.072819
100	0.074656
101	0.075786
102	0.077033
103	0.078294
104	0.079502
105	0.081228
106	0.082397
107	0.083655
108	0.085175
109	0.086453
110	0.088242
111	0.088984
112	0.090281
113	0.092012
114	0.093397
115	0.095173
116	0.095848
117	0.097116
118	0.098919
119	0.100197
120	0.102153
121	0.102742
122	0.104086
123	0.105983
124	0.107233
125	0.109067
126	0.109425
127	0.110758
128	0.112731
129	0.113970
130	0.115964
131	0.116359
132	0.117573
133	0.119594
134	0.120813
135	0.122877
136	0.123356
137	0.124545
138	0.126580
139	0.127773
140	0.129920
141	0.130331
142	0.131463
143	0.133102
144	0.134377
145	0.136531
146	0.136911
147	0.138114
148	0.139819
149	0.140711
150	0.142789
151	0.143161
152	0.144320
153	0.146027
154	0.146762
155	0.148466
156	0.148739
157	0.150073
158	0.151652
159	0.152552
160	0.154217
161	0.154128
162	0.155392
163	0.156919
164	0.157741
165	0.159234
166	0.159334
167	0.160528
168	0.162119
169	0.162844
170	0.164200
171	0.164564
172	0.165313
173	0.166570
174	0.167398
175	0.168594
176	0.168948
177	0.169773
178	0.170753
179	0.171578
180	0.172831
181	0.173084
182	0.173684
183	0.174648
184	0.175461
185	0.176697
186	0.176987
187	0.177512
188	0.178197
189	0.179033
190	0.180325
191	0.180380
192	0.181000
193	0.181692
194	0.182394
195	0.183963
196	0.183220
197	0.183567
198	0.183798
199	0.184508
200	0.186167
201	0.185492
202	0.185837
203	0.186041
204	0.186469
205	0.188095
206	0.187333
207	0.187762
208	0.188016
209	0.188227
210	0.189894
211	0.189089
212	0.189416
213	0.189594
214	0.189878
215	0.191627
216	0.190730
217	0.191016
218	0.191316
219	0.191295
220	0.193172
221	0.192341
222	0.192464
223	0.193013
224	0.192770
225	0.194622
226	0.193719
227	0.193697
228	0.194375
229	0.194253
230	0.195872
231	0.195089
232	0.195047
233	0.195475
234	0.195541
235	0.197125
236	0.196369
237	0.196231
238	0.196612
239	0.196736
240	0.198313
241	0.197572
242	0.197412
243	0.197614
244	0.197833
245	0.199370
246	0.198483
247	0.198431
248	0.198606
249	0.198566
250	0.199816
251	0.198856
252	0.198927
253	0.198988
254	0.199027
255	0.200313
256	0.199233
257	0.199214
258	0.199313
259	0.199353
260	0.200709
261	0.199652
262	0.199725
263	0.199692
264	0.199591
265	0.201125
266	0.199833
267	0.199995
268	0.200084
269	0.199986
270	0.201488
271	0.200216
272	0.200367
273	0.200373
274	0.200400
275	0.201630
276	0.200322
277	0.200538
278	0.200409
279	0.200794
280	0.202056
281	0.200572
282	0.200994
283	0.200519
284	0.200928
285	0.202323
286	0.200877
287	0.201198
288	0.200822
289	0.200992
290	0.202533
291	0.200978
292	0.201239
293	0.201067
294	0.201273
295	0.202677
296	0.201217
297	0.201241
298	0.200898
299	0.201434
300	0.202628
301	0.201203
302	0.201308
303	0.200686
304	0.201328
305	0.202581
306	0.201211
307	0.201462
308	0.200828
309	0.201448
310	0.202581
311	0.201156
312	0.201455
313	0.200822
314	0.201355
315	0.202583
316	0.201303
317	0.201495
318	0.200823
319	0.201362
320	0.202366
321	0.201162
322	0.201423
323	0.200991
324	0.201370
325	0.202487
326	0.201098
327	0.201236
328	0.200998
329	0.201570
330	0.202519
331	0.201161
332	0.201256
333	0.200830
334	0.201569
335	0.202572
336	0.201111
337	0.201241
338	0.200875
339	0.201594
340	0.202456
341	0.201153
342	0.201223
343	0.200733
344	0.201706
345	0.202350
346	0.201205
347	0.201380
348	0.200697
349	0.201758
350	0.202356
351	0.201298
352	0.201431
353	0.200758
354	0.201788
355	0.202288
356	0.201316
357	0.201402
358	0.200712
359	0.201714
360	0.202223
361	0.201181
362	0.201433
363	0.200764
364	0.201772
365	0.202367
366	0.201242
367	0.201427
368	0.200763
369	0.201670
370	0.202494
371	0.201352
372	0.201302
373	0.200970
374	0.201627
375	0.202416
376	0.201339
377	0.201123
378	0.200903
379	0.201480
380	0.202338
381	0.201377
382	0.201148
383	0.200986
384	0.201541
385	0.202484
386	0.201419
387	0.201308
388	0.200823
389	0.201489
390	0.202462
391	0.201294
392	0.201456
393	0.200830
394	0.201584
395	0.202511
396	0.201166
397	0.201592
398	0.200844
399	0.201497
400	0.202541
401	0.200959
402	0.201478
403	0.200769
404	0.201497
405	0.202697
406	0.200916
407	0.201747
408	0.200844
409	0.201405
410	0.202692
411	0.200892
412	0.201652
413	0.200831
414	0.201362
415	0.202505
416	0.201009
417	0.201672
418	0.200752
419	0.201525
420	0.202453
421	0.201020
422	0.201702
423	0.200617
424	0.201634
425	0.202497
426	0.200986
427	0.201712
428	0.200536
429	0.201641
430	0.202462
431	0.201050
432	0.201686
433	0.200573
434	0.201687
435	0.202361
436	0.201066
437	0.201752
438	0.200750
439	0.201712
440	0.202358
441	0.201036
442	0.201605
443	0.200859
444	0.201681
445	0.202273
446	0.201055
447	0.201470
448	0.200831
449	0.201714
450	0.202258
451	0.201148
452	0.201506
453	0.200836
454	0.201806
455	0.202345
456	0.201216
457	0.201472
458	0.200731
459	0.201717
460	0.202220
461	0.201236
462	0.201437
463	0.200725
464	0.201605
465	0.202412
466	0.201341
467	0.201556
468	0.200786
469	0.201516
470	0.202513
471	0.201277
472	0.201516
473	0.200875
474	0.201378
475	0.202513
476	0.201392
477	0.201550
478	0.200937
479	0.201372
480	0.202456
481	0.201183
482	0.201442
483	0.200883
484	0.201575
485	0.202566
486	0.201234
487	0.201481
488	0.200739
489	0.201584
490	0.202595
491	0.201238
492	0.201542
493	0.200725
494	0.201497
495	0.202570
496	0.201297
497	0.201673
498	0.200734
499	0.201520
500	0.202448
501	0.201277
502	0.201592
503	0.200744
504	0.201631
505	0.202234
506	0.201288
507	0.201620
508	0.200825
509	0.201703
510	0.202203
511	0.201327
512	0.201528
513	0.200883
514	0.201666
515	0.202212
516	0.201400
517	0.201488
518	0.200870
519	0.201645
520	0.202153
521	0.201316
522	0.201559
523	0.200923
524	0.201572
525	0.202158
526	0.201458
527	0.201581
528	0.200905
529	0.201841
530	0.201975
531	0.201403
532	0.201655
533	0.200789
534	0.201947
535	0.202014
536	0.201425
537	0.201600
538	0.200698
539	0.201836
540	0.202033
541	0.201416
542	0.201669
543	0.200705
544	0.201863
545	0.201997
546	0.201406
547	0.201758
548	0.200675
549	0.201823
550	0.202023
551	0.201291
552	0.201808
553	0.200755
554	0.201687
555	0.202073
556	0.201137
557	0.201911
558	0.200808
559	0.201689
560	0.202117
561	0.201116
562	0.201919
563	0.200850
564	0.201794
565	0.202069
566	0.201077
567	0.202028
568	0.200841
569	0.201706
570	0.202088
571	0.200931
572	0.201897
573	0.200984
574	0.201698
575	0.202094
576	0.201036
577	0.201892
578	0.200903
579	0.201734
580	0.202141
581	0.201056
582	0.201869
583	0.200909
584	0.201756
585	0.202095
586	0.201136
587	0.201892
588	0.200822
589	0.201869
590	0.202088
591	0.201009
592	0.201813
593	0.200855
594	0.201806
595	0.202009
596	0.200994
597	0.201730
598	0.200823
599	0.202064
