0	0.035000
1	0.273850
2	0.588584
3	0.787925
4	0.667586
5	0.396523
6	0.174250
7	0.058811
8	0.016647
9	0.005978
10	0.004500
11	0.004859
12	0.005647
13	0.006508
14	0.007380
15	0.008202
16	0.008966
17	0.009747
18	0.010489
19	0.011352
20	0.012212
21	0.013061
22	0.013792
23	0.014428
24	0.015136
25	0.015836
26	0.016612
27	0.017398
28	0.018231
29	0.019169
30	0.020125
31	0.021105
32	0.021872
33	0.022658
34	0.023564
35	0.024655
36	0.025773
37	0.026816
38	0.027987
39	0.029086
40	0.030233
41	0.031325
42	0.032481
43	0.033703
44	0.034891
45	0.036191
46	0.037542
47	0.038866
48	0.040353
49	0.041786
50	0.043287
51	0.044677
52	0.046048
53	0.047636
54	0.049145
55	0.050828
56	0.052409
57	0.054002
58	0.055747
59	0.057364
60	0.059244
61	0.060961
62	0.062748
63	0.064633
64	0.066392
65	0.068441
66	0.070339
67	0.072352
68	0.074358
69	0.076300
70	0.078428
71	0.080562
72	0.082698
73	0.084902
74	0.087000
75	0.089316
76	0.091645
77	0.093878
78	0.096261
79	0.098495
80	0.100970
81	0.103413
82	0.105719
83	0.108203
84	0.110364
85	0.112812
86	0.115163
87	0.117598
88	0.120300
89	0.122598
90	0.125173
91	0.127519
92	0.130103
93	0.132792
94	0.135236
95	0.137930
96	0.140366
97	0.142900
98	0.145514
99	0.148055
100	0.150809
101	0.153369
102	0.155913
103	0.158703
104	0.161380
105	0.164352
106	0.167002
107	0.169702
108	0.172525
109	0.175331
110	0.178344
111	0.181209
112	0.183958
113	0.186886
114	0.189748
115	0.192931
116	0.195970
117	0.198834
118	0.201863
119	0.204819
120	0.208180
121	0.211270
122	0.214283
123	0.217287
124	0.220025
125	0.222622
126	0.225203
127	0.228020
128	0.231131
129	0.234239
130	0.237575
131	0.240931
132	0.244216
133	0.247369
134	0.250653
135	0.254247
136	0.257678
137	0.261117
138	0.264166
139	0.267112
140	0.269984
141	0.271848
142	0.274142
143	0.276462
144	0.279898
145	0.283266
146	0.286339
147	0.289497
148	0.292787
149	0.296413
150	0.299870
151	0.302933
152	0.305950
153	0.309156
154	0.312520
155	0.315848
156	0.318814
157	0.322134
158	0.325139
159	0.328545
160	0.330802
161	0.333073
162	0.335616
163	0.338650
164	0.342208
165	0.344083
166	0.345536
167	0.347341
168	0.349675
169	0.353039
170	0.354286
171	0.355336
172	0.356873
173	0.359558
174	0.363300
175	0.365016
176	0.366173
177	0.367802
178	0.370266
179	0.373984
180	0.375766
181	0.376928
182	0.378545
183	0.380816
184	0.384609
185	0.386311
186	0.387445
187	0.388897
188	0.391155
189	0.395092
190	0.396803
191	0.397992
192	0.399353
193	0.401741
194	0.405302
195	0.406555
196	0.407203
197	0.408266
198	0.410645
199	0.414253
200	0.416030
201	0.417314
202	0.418680
203	0.421058
204	0.424391
205	0.426052
206	0.427239
207	0.428592
208	0.431070
209	0.434208
210	0.435942
211	0.437200
212	0.438641
213	0.440933
214	0.443906
215	0.445720
216	0.446962
217	0.448512
218	0.450669
219	0.453558
220	0.455336
221	0.456595
222	0.458167
223	0.460347
224	0.463144
225	0.465070
226	0.466217
227	0.467769
228	0.469942
229	0.472659
230	0.474591
231	0.475653
232	0.476963
233	0.478978
234	0.481367
235	0.483347
236	0.484355
237	0.485655
238	0.487961
239	0.490563
240	0.492737
241	0.493720
242	0.494850
243	0.497184
244	0.499688
245	0.501992
246	0.503011
247	0.504102
248	0.506419
249	0.508459
250	0.510266
251	0.510916
252	0.511853
253	0.514095
254	0.516003
255	0.517713
256	0.518198
257	0.518875
258	0.521019
259	0.522886
260	0.524675
261	0.525156
262	0.525947
263	0.528002
264	0.529683
265	0.531477
266	0.532031
267	0.532975
268	0.534709
269	0.536458
270	0.537691
271	0.537834
272	0.538005
273	0.539756
274	0.541419
275	0.542519
276	0.542311
277	0.542295
278	0.543752
279	0.545183
280	0.546055
281	0.545873
282	0.545844
283	0.547189
284	0.548520
285	0.549383
286	0.549248
287	0.549291
288	0.550411
289	0.551656
290	0.552419
291	0.552498
292	0.552617
293	0.553575
294	0.554867
295	0.555436
296	0.555661
297	0.555634
298	0.556692
299	0.557909
300	0.558519
301	0.558848
302	0.558800
303	0.559767
304	0.560728
305	0.561236
306	0.561459
307	0.561377
308	0.562428
309	0.563417
310	0.563931
311	0.564113
312	0.563964
313	0.565091
314	0.565914
315	0.566470
316	0.566658
317	0.566472
318	0.567616
319	0.568284
320	0.568881
321	0.569095
322	0.568958
323	0.570044
324	0.570550
325	0.571180
326	0.571395
327	0.571280
328	0.572272
329	0.572887
330	0.573598
331	0.573572
332	0.573431
333	0.574231
334	0.575141
335	0.575795
336	0.575744
337	0.575517
338	0.576369
339	0.577217
340	0.577828
341	0.577691
342	0.577523
343	0.578364
344	0.579245
345	0.579895
346	0.579797
347	0.579408
348	0.580152
349	0.581078
350	0.581691
351	0.581734
352	0.581316
353	0.582259
354	0.583031
355	0.583488
356	0.583336
357	0.582928
358	0.583859
359	0.584716
360	0.585114
361	0.585078
362	0.584545
363	0.585686
364	0.586248
365	0.586938
366	0.586734
367	0.586327
368	0.587025
369	0.587634
370	0.588373
371	0.588180
372	0.587856
373	0.588414
374	0.589148
375	0.589684
376	0.589525
377	0.589306
378	0.589842
379	0.590497
380	0.591017
381	0.590772
382	0.590630
383	0.591023
384	0.591781
385	0.592116
386	0.591989
387	0.591702
388	0.592292
389	0.592970
390	0.593206
391	0.592823
392	0.592477
393	0.593191
394	0.594023
395	0.594002
396	0.593511
397	0.593041
398	0.594064
399	0.595036
400	0.594962
401	0.594366
402	0.593806
403	0.594756
404	0.595753
405	0.595642
406	0.595214
407	0.594567
408	0.595466
409	0.596375
410	0.596389
411	0.596027
412	0.595355
413	0.596064
414	0.596991
415	0.597056
416	0.596780
417	0.595977
418	0.596853
419	0.597561
420	0.597886
421	0.597344
422	0.596673
423	0.597331
424	0.598091
425	0.598487
426	0.597931
427	0.597306
428	0.597788
429	0.598734
430	0.599067
431	0.598489
432	0.597631
433	0.598023
434	0.598952
435	0.599198
436	0.598431
437	0.597667
438	0.598006
439	0.598950
440	0.599156
441	0.598380
442	0.597644
443	0.598030
444	0.598964
445	0.599250
446	0.598431
447	0.597655
448	0.598006
449	0.598784
450	0.599187
451	0.598453
452	0.597825
453	0.598117
454	0.598827
455	0.599311
456	0.598419
457	0.597772
458	0.597881
459	0.598792
460	0.599239
461	0.598486
462	0.597772
463	0.598017
464	0.598705
465	0.599331
466	0.598459
467	0.597898
468	0.598036
469	0.598720
470	0.599289
471	0.598220
472	0.597823
473	0.598073
474	0.598938
475	0.599400
476	0.598123
477	0.597747
478	0.598017
479	0.599028
480	0.599437
481	0.598189
482	0.597708
483	0.598089
484	0.598917
485	0.599452
486	0.598155
487	0.597855
488	0.598103
489	0.598886
490	0.599447
491	0.598294
492	0.597931
493	0.597934
494	0.598719
495	0.599422
496	0.598491
497	0.597978
498	0.598120
499	0.598702
500	0.599430
501	0.598261
502	0.597941
503	0.598114
504	0.598745
505	0.599409
506	0.598231
507	0.597955
508	0.598164
509	0.598891
510	0.599442
511	0.598172
512	0.597798
513	0.598094
514	0.598892
515	0.599436
516	0.598183
517	0.597827
518	0.598067
519	0.598923
520	0.599394
521	0.598273
522	0.597777
523	0.598056
524	0.598956
525	0.599519
526	0.598372
527	0.597809
528	0.598027
529	0.598869
530	0.599450
531	0.598323
532	0.597936
533	0.598066
534	0.598938
535	0.599437
536	0.598339
537	0.597842
538	0.597895
539	0.598812
540	0.599459
541	0.598497
542	0.598006
543	0.597933
544	0.598686
545	0.599317
546	0.598486
547	0.598003
548	0.597897
549	0.598589
550	0.599287
551	0.598547
552	0.598206
553	0.598044
554	0.598695
555	0.599273
556	0.598555
557	0.598239
558	0.597808
559	0.598653
560	0.599187
561	0.598762
562	0.598400
563	0.597930
564	0.598675
565	0.599106
566	0.598611
567	0.598397
568	0.597794
569	0.598759
570	0.599050
571	0.598742
572	0.598341
573	0.597761
574	0.598691
575	0.599009
576	0.598869
577	0.598337
578	0.597808
579	0.598555
580	0.599002
581	0.598961
582	0.598392
583	0.597905
584	0.598588
585	0.598934
586	0.598864
587	0.598341
588	0.597994
589	0.598688
590	0.598838
591	0.598980
592	0.598334
593	0.598070
594	0.598569
595	0.598844
596	0.598989
597	0.598350
598	0.598066
599	0.598555
