0	0.000000
1	0.000000
2	0.000000
3	0.035000
4	0.239791
5	0.317548
6	0.238066
7	0.121002
8	0.044561
9	0.011967
10	0.002764
11	0.001316
12	0.001434
13	0.001748
14	0.002064
15	0.002367
16	0.002630
17	0.002914
18	0.003145
19	0.003442
20	0.003752
21	0.004089
22	0.004420
23	0.004773
24	0.005156
25	0.005508
26	0.005938
27	0.006244
28	0.006561
29	0.006944
30	0.007355
31	0.007830
32	0.008220
33	0.008655
34	0.009106
35	0.009620
36	0.010097
37	0.010592
38	0.011145
39	0.011605
40	0.012008
41	0.012539
42	0.013083
43	0.013722
44	0.014205
45	0.014841
46	0.015569
47	0.016206
48	0.016891
49	0.017584
50	0.018139
51	0.018930
52	0.019675
53	0.020411
54	0.021159
55	0.021984
56	0.022842
57	0.023606
58	0.024309
59	0.025084
60	0.025956
61	0.026911
62	0.027481
63	0.028244
64	0.029039
65	0.029962
66	0.030780
67	0.031366
68	0.032255
69	0.033055
70	0.034039
71	0.035325
72	0.035770
73	0.036595
74	0.037364
75	0.038383
76	0.039666
77	0.040214
78	0.041178
79	0.042127
80	0.043117
81	0.044548
82	0.045186
83	0.046186
84	0.047219
85	0.048197
86	0.049709
87	0.050400
88	0.051416
89	0.052544
90	0.053352
91	0.054853
92	0.055697
93	0.056752
94	0.057880
95	0.058827
96	0.060064
97	0.060820
98	0.061903
99	0.062945
100	0.064098
101	0.065273
102	0.066102
103	0.067273
104	0.068294
105	0.069566
106	0.070708
107	0.071603
108	0.072781
109	0.073919
110	0.075152
111	0.076358
112	0.077317
113	0.078452
114	0.079684
115	0.080984
116	0.082183
117	0.083216
118	0.084372
119	0.085583
120	0.086967
121	0.088142
122	0.089247
123	0.090489
124	0.091716
125	0.093188
126	0.094370
127	0.095592
128	0.096769
129	0.098008
130	0.099528
131	0.100244
132	0.101459
133	0.102658
134	0.103563
135	0.104778
136	0.105406
137	0.106728
138	0.107823
139	0.108753
140	0.110173
141	0.110756
142	0.112187
143	0.113287
144	0.114087
145	0.115522
146	0.116159
147	0.117709
148	0.118894
149	0.119656
150	0.121147
151	0.121813
152	0.123445
153	0.124734
154	0.125431
155	0.126905
156	0.127636
157	0.129337
158	0.130477
159	0.131084
160	0.132486
161	0.133075
162	0.134806
163	0.135939
164	0.136495
165	0.138098
166	0.138622
167	0.140278
168	0.141536
169	0.141991
170	0.143511
171	0.144295
172	0.145719
173	0.146864
174	0.147447
175	0.148853
176	0.149408
177	0.150733
178	0.151880
179	0.152359
180	0.153770
181	0.154325
182	0.155611
183	0.156728
184	0.157239
185	0.158450
186	0.159161
187	0.160386
188	0.160980
189	0.160095
190	0.161022
191	0.161870
192	0.162992
193	0.163861
194	0.163391
195	0.164109
196	0.165142
197	0.166164
198	0.166997
199	0.166561
200	0.167311
201	0.168217
202	0.169216
203	0.169770
204	0.168914
205	0.169662
206	0.170694
207	0.171589
208	0.172547
209	0.172053
210	0.171970
211	0.173070
212	0.173858
213	0.174845
214	0.174405
215	0.174942
216	0.176080
217	0.176847
218	0.177733
219	0.177253
220	0.177861
221	0.179025
222	0.179839
223	0.180663
224	0.180166
225	0.180719
226	0.181638
227	0.182616
228	0.183483
229	0.183011
230	0.183673
231	0.184550
232	0.185411
233	0.186328
234	0.185716
235	0.186355
236	0.187277
237	0.188002
238	0.188559
239	0.187562
240	0.188091
241	0.188731
242	0.189441
243	0.190600
244	0.189827
245	0.190777
246	0.191125
247	0.191730
248	0.193097
249	0.192245
250	0.193263
251	0.193603
252	0.194095
253	0.195227
254	0.194492
255	0.195509
256	0.195780
257	0.196370
258	0.197445
259	0.196761
260	0.197892
261	0.198045
262	0.198375
263	0.199272
264	0.198373
265	0.199619
266	0.199675
267	0.199953
268	0.200702
269	0.199750
270	0.201139
271	0.201070
272	0.201036
273	0.201184
274	0.199972
275	0.201447
276	0.201234
277	0.201419
278	0.201591
279	0.200342
280	0.201730
281	0.201372
282	0.201583
283	0.201717
284	0.200588
285	0.202006
286	0.201492
287	0.201645
288	0.201788
289	0.200570
290	0.201847
291	0.201420
292	0.201509
293	0.201784
294	0.200630
295	0.201838
296	0.201367
297	0.201541
298	0.201834
299	0.200602
300	0.201750
301	0.201464
302	0.201552
303	0.201941
304	0.200636
305	0.201741
306	0.201362
307	0.201452
308	0.202073
309	0.200712
310	0.201794
311	0.201356
312	0.201381
313	0.201977
314	0.200853
315	0.201839
316	0.201513
317	0.201436
318	0.201845
319	0.200833
320	0.201694
321	0.201330
322	0.201441
323	0.201830
324	0.200962
325	0.201773
326	0.201352
327	0.201367
328	0.201941
329	0.200923
330	0.201800
331	0.201397
332	0.201348
333	0.201875
334	0.200977
335	0.201863
336	0.201450
337	0.201239
338	0.201925
339	0.200930
340	0.201711
341	0.201533
342	0.201047
343	0.201927
344	0.201014
345	0.201792
346	0.201634
347	0.201089
348	0.201687
349	0.200941
350	0.201720
351	0.201545
352	0.201270
353	0.201711
354	0.201031
355	0.201855
356	0.201372
357	0.201233
358	0.201752
359	0.200873
360	0.202073
361	0.201431
362	0.201189
363	0.201839
364	0.200795
365	0.202106
366	0.201322
367	0.201173
368	0.201886
369	0.200889
370	0.202270
371	0.201273
372	0.201077
373	0.201850
374	0.200783
375	0.202317
376	0.201231
377	0.201123
378	0.201959
379	0.200792
380	0.202286
381	0.201225
382	0.201058
383	0.201947
384	0.200825
385	0.202319
386	0.201236
387	0.201128
388	0.201941
389	0.200797
390	0.202309
391	0.201134
392	0.201244
393	0.201969
394	0.200764
395	0.202516
396	0.201039
397	0.201300
398	0.201952
399	0.200605
400	0.202561
401	0.201103
402	0.201288
403	0.201852
404	0.200533
405	0.202297
406	0.201200
407	0.201370
408	0.201933
409	0.200716
410	0.202419
411	0.201130
412	0.201395
413	0.201928
414	0.200639
415	0.202322
416	0.201177
417	0.201367
418	0.201870
419	0.200714
420	0.202134
421	0.201172
422	0.201266
423	0.201895
424	0.200952
425	0.202109
426	0.201091
427	0.201106
428	0.201872
429	0.201055
430	0.202198
431	0.201238
432	0.201119
433	0.201847
434	0.201091
435	0.202205
436	0.201244
437	0.201014
438	0.201852
439	0.201270
440	0.202172
441	0.201267
442	0.200981
443	0.201897
444	0.201291
445	0.202267
446	0.201369
447	0.200761
448	0.201869
449	0.201147
450	0.202120
451	0.201470
452	0.200797
453	0.202017
454	0.201200
455	0.202016
456	0.201403
457	0.200738
458	0.201959
459	0.201252
460	0.202108
461	0.201394
462	0.200661
463	0.201984
464	0.201297
465	0.202162
466	0.201427
467	0.200694
468	0.201897
469	0.201317
470	0.202266
471	0.201414
472	0.200781
473	0.201902
474	0.201206
475	0.202227
476	0.201333
477	0.200627
478	0.201819
479	0.201355
480	0.202358
481	0.201420
482	0.200816
483	0.201850
484	0.201216
485	0.202269
486	0.201391
487	0.200813
488	0.201886
489	0.201256
490	0.202150
491	0.201488
492	0.200836
493	0.201845
494	0.201280
495	0.202077
496	0.201437
497	0.200887
498	0.201869
499	0.201316
500	0.202194
501	0.201395
502	0.200862
503	0.201828
504	0.201230
505	0.202234
506	0.201303
507	0.201016
508	0.201770
509	0.201197
510	0.202277
511	0.201263
512	0.200988
513	0.201687
514	0.201183
515	0.202211
516	0.201452
517	0.201105
518	0.201733
519	0.201203
520	0.202161
521	0.201575
522	0.201167
523	0.201719
524	0.201231
525	0.202233
526	0.201431
527	0.201189
528	0.201692
529	0.201167
530	0.202194
531	0.201437
532	0.201212
533	0.201720
534	0.201083
535	0.202214
536	0.201411
537	0.201170
538	0.201788
539	0.201020
540	0.202208
541	0.201380
542	0.201214
543	0.201833
544	0.201094
545	0.202267
546	0.201387
547	0.201097
548	0.201833
549	0.201072
550	0.202252
551	0.201423
552	0.201036
553	0.201889
554	0.201106
555	0.202172
556	0.201469
557	0.200919
558	0.201841
559	0.201141
560	0.202122
561	0.201538
562	0.200966
563	0.201984
564	0.201178
565	0.202080
566	0.201513
567	0.200973
568	0.201919
569	0.201083
570	0.202116
571	0.201567
572	0.201006
573	0.201964
574	0.201106
575	0.202045
576	0.201563
577	0.201117
578	0.201881
579	0.201127
580	0.202078
581	0.201538
582	0.201033
583	0.201934
584	0.201189
585	0.202250
586	0.201608
587	0.201097
588	0.201756
589	0.200916
590	0.202225
591	0.201570
592	0.201150
593	0.201822
594	0.200769
595	0.202069
596	0.201691
597	0.201219
598	0.201914
599	0.200827
