0	0.035000
1	0.273725
2	0.589314
3	0.791144
4	0.670687
5	0.397247
6	0.171891
7	0.056645
8	0.016028
9	0.006258
10	0.005317
11	0.006222
12	0.007227
13	0.008150
14	0.008886
15	0.009597
16	0.010253
17	0.010977
18	0.011708
19	0.012470
20	0.013258
21	0.014086
22	0.014747
23	0.015372
24	0.015981
25	0.016783
26	0.017705
27	0.018697
28	0.019753
29	0.020816
30	0.021908
31	0.023022
32	0.024183
33	0.025431
34	0.026641
35	0.027697
36	0.028578
37	0.029547
38	0.030798
39	0.032192
40	0.033636
41	0.035078
42	0.036580
43	0.038202
44	0.039772
45	0.041392
46	0.043053
47	0.044658
48	0.046359
49	0.047914
50	0.049583
51	0.051252
52	0.053031
53	0.054981
54	0.056811
55	0.058612
56	0.060323
57	0.062109
58	0.063897
59	0.065630
60	0.067317
61	0.069138
62	0.071048
63	0.073141
64	0.075142
65	0.077045
66	0.078989
67	0.081039
68	0.083263
69	0.085283
70	0.087102
71	0.089080
72	0.091214
73	0.093592
74	0.095678
75	0.097661
76	0.099745
77	0.102047
78	0.104014
79	0.105808
80	0.107430
81	0.109669
82	0.112000
83	0.114533
84	0.116822
85	0.119052
86	0.121380
87	0.123814
88	0.126525
89	0.128844
90	0.131309
91	0.133608
92	0.136133
93	0.138769
94	0.141139
95	0.143647
96	0.146034
97	0.148586
98	0.151320
99	0.153722
100	0.156386
101	0.158881
102	0.161461
103	0.164103
104	0.166520
105	0.169270
106	0.171795
107	0.174106
108	0.176614
109	0.178853
110	0.181697
111	0.184219
112	0.186641
113	0.189097
114	0.191384
115	0.194220
116	0.196958
117	0.199391
118	0.201961
119	0.203845
120	0.206336
121	0.208683
122	0.211106
123	0.213750
124	0.216102
125	0.219044
126	0.221819
127	0.224295
128	0.227047
129	0.229197
130	0.232039
131	0.234589
132	0.237167
133	0.239834
134	0.242047
135	0.244930
136	0.247520
137	0.250100
138	0.252694
139	0.255019
140	0.257878
141	0.260472
142	0.263037
143	0.265658
144	0.268017
145	0.270856
146	0.273425
147	0.276044
148	0.278619
149	0.281069
150	0.283889
151	0.286483
152	0.289069
153	0.291705
154	0.294272
155	0.297089
156	0.299359
157	0.301709
158	0.304144
159	0.306819
160	0.309583
161	0.311908
162	0.314228
163	0.316705
164	0.319258
165	0.322061
166	0.324373
167	0.326672
168	0.329047
169	0.331198
170	0.333494
171	0.335134
172	0.337111
173	0.339139
174	0.341333
175	0.343845
176	0.345973
177	0.347969
178	0.349611
179	0.351447
180	0.353723
181	0.355833
182	0.357745
183	0.359370
184	0.361333
185	0.363631
186	0.365831
187	0.367316
188	0.368908
189	0.370647
190	0.373006
191	0.375019
192	0.376464
193	0.377923
194	0.379584
195	0.381678
196	0.383631
197	0.385062
198	0.386464
199	0.388091
200	0.390047
201	0.392044
202	0.393347
203	0.394656
204	0.395808
205	0.397450
206	0.399061
207	0.400344
208	0.401495
209	0.402614
210	0.404288
211	0.405816
212	0.407075
213	0.408270
214	0.409422
215	0.411077
216	0.412466
217	0.413827
218	0.414981
219	0.416134
220	0.417737
221	0.419144
222	0.420441
223	0.421464
224	0.422712
225	0.424237
226	0.425717
227	0.426764
228	0.428116
229	0.429236
230	0.430752
231	0.431975
232	0.433208
233	0.434553
234	0.435597
235	0.437009
236	0.438316
237	0.439602
238	0.440809
239	0.441678
240	0.442992
241	0.444350
242	0.445753
243	0.446939
244	0.447794
245	0.448998
246	0.450219
247	0.451622
248	0.452922
249	0.453942
250	0.455175
251	0.456263
252	0.457608
253	0.458944
254	0.459942
255	0.461119
256	0.462059
257	0.463419
258	0.464795
259	0.465759
260	0.466955
261	0.467806
262	0.469180
263	0.470497
264	0.471625
265	0.472739
266	0.473689
267	0.474970
268	0.476403
269	0.477475
270	0.478619
271	0.479575
272	0.480753
273	0.482172
274	0.483222
275	0.484494
276	0.485405
277	0.486672
278	0.487992
279	0.488953
280	0.490247
281	0.491230
282	0.492563
283	0.493781
284	0.494767
285	0.496184
286	0.497059
287	0.498337
288	0.499719
289	0.500808
290	0.502003
291	0.502778
292	0.504041
293	0.505637
294	0.506381
295	0.507425
296	0.507947
297	0.509144
298	0.510591
299	0.510978
300	0.511800
301	0.511953
302	0.388383
303	0.289914
304	0.225123
305	0.350716
306	0.410627
307	0.396094
308	0.308119
309	0.288275
310	0.345552
311	0.388580
312	0.378073
313	0.324356
314	0.312852
315	0.346058
316	0.374222
317	0.365173
318	0.333875
319	0.327805
320	0.349241
321	0.365941
322	0.359214
323	0.340239
324	0.337534
325	0.349945
326	0.360927
327	0.356737
328	0.345405
329	0.342325
330	0.350355
331	0.357878
332	0.356089
333	0.347352
334	0.346128
335	0.351230
336	0.357709
337	0.356475
338	0.350806
339	0.349316
340	0.352528
341	0.357150
342	0.355473
343	0.351363
344	0.350359
345	0.354036
346	0.356677
347	0.355913
348	0.352773
349	0.353737
350	0.354875
351	0.356686
352	0.355909
353	0.354641
354	0.354925
355	0.354725
356	0.356395
357	0.356320
358	0.356205
359	0.356116
360	0.355800
361	0.357091
362	0.356916
363	0.357363
364	0.356430
365	0.357075
366	0.357908
367	0.358377
368	0.357555
369	0.357377
370	0.357397
371	0.359000
372	0.358795
373	0.359234
374	0.359075
375	0.360291
376	0.360130
377	0.359714
378	0.358495
379	0.359516
380	0.360283
381	0.360572
382	0.360259
383	0.359588
384	0.360467
385	0.360936
386	0.361217
387	0.360900
388	0.360655
389	0.361500
390	0.361792
391	0.361689
392	0.360850
393	0.361366
394	0.362083
395	0.363173
396	0.362961
397	0.361822
398	0.361811
399	0.362406
400	0.364278
401	0.364000
402	0.363267
403	0.361925
404	0.362289
405	0.362956
406	0.364002
407	0.363411
408	0.363453
409	0.363286
410	0.363903
411	0.363527
412	0.363889
413	0.364098
414	0.365075
415	0.364750
416	0.364495
417	0.363858
418	0.364503
419	0.365158
420	0.365938
421	0.365236
422	0.365105
423	0.365159
424	0.366406
425	0.365747
426	0.365475
427	0.365177
428	0.366022
429	0.366591
430	0.366386
431	0.366498
432	0.365762
433	0.365758
434	0.366488
435	0.366845
436	0.367359
437	0.366695
438	0.366606
439	0.366564
440	0.366542
441	0.367253
442	0.367361
443	0.367503
444	0.367545
445	0.366523
446	0.367020
447	0.367902
448	0.368756
449	0.368819
450	0.367092
451	0.367841
452	0.368033
453	0.368425
454	0.368436
455	0.368278
456	0.368970
457	0.368211
458	0.368541
459	0.368186
460	0.368670
461	0.368552
462	0.368870
463	0.369319
464	0.369192
465	0.368645
466	0.369389
467	0.369686
468	0.370409
469	0.368603
470	0.368583
471	0.368912
472	0.370392
473	0.370219
474	0.369412
475	0.368812
476	0.370175
477	0.370605
478	0.371055
479	0.369634
480	0.369767
481	0.369680
482	0.370648
483	0.370078
484	0.370520
485	0.369981
486	0.371409
487	0.370625
488	0.370644
489	0.370352
490	0.371005
491	0.371575
492	0.371059
493	0.370691
494	0.370278
495	0.370597
496	0.370783
497	0.371144
498	0.370933
499	0.371653
500	0.372316
501	0.372566
502	0.371733
503	0.370648
504	0.371013
505	0.371491
506	0.372138
507	0.372120
508	0.371450
509	0.371605
510	0.372358
511	0.373556
512	0.373113
513	0.371948
514	0.371317
515	0.372381
516	0.372762
517	0.373189
518	0.372603
519	0.372789
520	0.371920
521	0.371800
522	0.373395
523	0.374611
524	0.374130
525	0.371719
526	0.371197
527	0.372886
528	0.374766
529	0.374969
530	0.372816
531	0.372352
532	0.372753
533	0.374222
534	0.373762
535	0.373130
536	0.373102
537	0.373011
538	0.373478
539	0.373495
540	0.374411
541	0.374166
542	0.373658
543	0.373592
544	0.375000
545	0.375772
546	0.374767
547	0.373088
548	0.373402
549	0.375089
550	0.375439
551	0.374097
552	0.373177
553	0.373669
554	0.375183
555	0.374884
556	0.374794
557	0.373989
558	0.374083
559	0.374600
560	0.375067
561	0.375269
562	0.374409
563	0.374169
564	0.373698
565	0.375142
566	0.375402
567	0.375916
568	0.374255
569	0.374855
570	0.375600
571	0.376184
572	0.375200
573	0.374017
574	0.374520
575	0.375722
576	0.376259
577	0.375181
578	0.373833
579	0.374036
580	0.375419
581	0.376130
582	0.375448
583	0.374517
584	0.374452
585	0.375753
586	0.375456
587	0.375708
588	0.374430
589	0.375583
590	0.375555
591	0.376133
592	0.375720
593	0.374442
594	0.375350
595	0.375961
596	0.377078
597	0.376186
598	0.375236
599	0.375138
