0	0.050000
1	0.368870
2	0.720037
3	0.917019
4	0.983551
5	0.947784
6	0.630860
7	0.279987
8	0.083304
9	0.017329
10	0.003952
11	0.003139
12	0.004216
13	0.005498
14	0.006722
15	0.007828
16	0.008863
17	0.009905
18	0.010816
19	0.011637
20	0.012417
21	0.013095
22	0.013615
23	0.014210
24	0.014765
25	0.015341
26	0.015988
27	0.016679
28	0.017353
29	0.018099
30	0.018689
31	0.019204
32	0.019774
33	0.020340
34	0.020913
35	0.021623
36	0.022394
37	0.023159
38	0.023985
39	0.024782
40	0.025558
41	0.026377
42	0.027197
43	0.028062
44	0.028958
45	0.029945
46	0.030959
47	0.031973
48	0.032965
49	0.034021
50	0.035082
51	0.035959
52	0.036853
53	0.037765
54	0.038643
55	0.039549
56	0.040626
57	0.041606
58	0.042508
59	0.043458
60	0.044421
61	0.045354
62	0.046448
63	0.047599
64	0.048819
65	0.049974
66	0.051183
67	0.052392
68	0.053630
69	0.054839
70	0.056092
71	0.057407
72	0.058699
73	0.060034
74	0.061344
75	0.062753
76	0.064077
77	0.065432
78	0.066835
79	0.068253
80	0.069752
81	0.071183
82	0.072725
83	0.074158
84	0.075653
85	0.077055
86	0.078638
87	0.080095
88	0.081542
89	0.083040
90	0.084499
91	0.085983
92	0.087505
93	0.089198
94	0.090912
95	0.092582
96	0.094322
97	0.096071
98	0.097837
99	0.099439
100	0.101142
101	0.102831
102	0.104514
103	0.106243
104	0.108055
105	0.109953
106	0.111766
107	0.113752
108	0.115704
109	0.117669
110	0.119724
111	0.121730
112	0.123748
113	0.125717
114	0.127664
115	0.129535
116	0.131451
117	0.133407
118	0.135352
119	0.137454
120	0.139430
121	0.141401
122	0.143208
123	0.145073
124	0.146933
125	0.148856
126	0.150915
127	0.152935
128	0.154929
129	0.156809
130	0.158987
131	0.160986
132	0.163072
133	0.165302
134	0.167425
135	0.169268
136	0.171081
137	0.173089
138	0.174787
139	0.176752
140	0.178788
141	0.180824
142	0.182709
143	0.184636
144	0.186647
145	0.188414
146	0.190436
147	0.192510
148	0.194566
149	0.196496
150	0.198440
151	0.200511
152	0.202336
153	0.204424
154	0.206554
155	0.208704
156	0.210669
157	0.212626
158	0.214756
159	0.216615
160	0.218749
161	0.220990
162	0.223213
163	0.225237
164	0.227203
165	0.229343
166	0.231202
167	0.233311
168	0.235542
169	0.237878
170	0.239918
171	0.241940
172	0.244164
173	0.246124
174	0.248203
175	0.250553
176	0.252889
177	0.255012
178	0.257019
179	0.259326
180	0.261361
181	0.263576
182	0.265933
183	0.268372
184	0.270573
185	0.272629
186	0.274944
187	0.277070
188	0.279346
189	0.281741
190	0.284204
191	0.286502
192	0.288668
193	0.290945
194	0.293224
195	0.295572
196	0.297965
197	0.300427
198	0.302856
199	0.305017
200	0.307202
201	0.309490
202	0.311896
203	0.314266
204	0.316758
205	0.319330
206	0.321418
207	0.323261
208	0.325266
209	0.327376
210	0.329459
211	0.331832
212	0.334459
213	0.336828
214	0.339080
215	0.341573
216	0.344129
217	0.346698
218	0.349305
219	0.352031
220	0.354527
221	0.356862
222	0.359463
223	0.362199
224	0.364853
225	0.367423
226	0.369839
227	0.371612
228	0.373276
229	0.375175
230	0.377279
231	0.379646
232	0.382331
233	0.384779
234	0.386605
235	0.388374
236	0.390323
237	0.392521
238	0.394728
239	0.397353
240	0.399679
241	0.401457
242	0.403091
243	0.405129
244	0.407385
245	0.409610
246	0.412162
247	0.414395
248	0.416138
249	0.417854
250	0.419837
251	0.422090
252	0.424406
253	0.427025
254	0.429133
255	0.430909
256	0.432676
257	0.434647
258	0.436903
259	0.439294
260	0.441927
261	0.444019
262	0.445866
263	0.447609
264	0.449445
265	0.451791
266	0.454171
267	0.456664
268	0.458771
269	0.460803
270	0.462412
271	0.464394
272	0.466835
273	0.469318
274	0.471759
275	0.473739
276	0.475266
277	0.476408
278	0.477856
279	0.479784
280	0.482028
281	0.484419
282	0.486410
283	0.487969
284	0.489118
285	0.490543
286	0.492465
287	0.494734
288	0.497119
289	0.499160
290	0.500716
291	0.501805
292	0.503183
293	0.505119
294	0.507319
295	0.509632
296	0.511822
297	0.513347
298	0.514392
299	0.515910
300	0.517882
301	0.520114
302	0.522343
303	0.524592
304	0.526059
305	0.527130
306	0.528481
307	0.530639
308	0.532778
309	0.535042
310	0.537330
311	0.538816
312	0.539851
313	0.541234
314	0.543364
315	0.545406
316	0.547682
317	0.550053
318	0.551485
319	0.552544
320	0.554002
321	0.556143
322	0.558096
323	0.560392
324	0.562740
325	0.564158
326	0.565272
327	0.566707
328	0.568735
329	0.570612
330	0.572775
331	0.575017
332	0.576267
333	0.577361
334	0.578769
335	0.580812
336	0.582489
337	0.584754
338	0.587027
339	0.588083
340	0.589263
341	0.590740
342	0.592745
343	0.594412
344	0.596833
345	0.598968
346	0.599759
347	0.600259
348	0.601002
349	0.602307
350	0.603295
351	0.605263
352	0.607449
353	0.608302
354	0.608745
355	0.609432
356	0.610861
357	0.611758
358	0.613710
359	0.615781
360	0.616708
361	0.617052
362	0.617661
363	0.619087
364	0.620051
365	0.621975
366	0.624053
367	0.625011
368	0.625258
369	0.625829
370	0.627142
371	0.628107
372	0.629949
373	0.632084
374	0.633085
375	0.633250
376	0.633799
377	0.635142
378	0.636111
379	0.637877
380	0.640099
381	0.641050
382	0.641159
383	0.641648
384	0.643028
385	0.644013
386	0.645714
387	0.647937
388	0.648794
389	0.648856
390	0.649163
391	0.650429
392	0.651238
393	0.652813
394	0.654877
395	0.655687
396	0.655718
397	0.656050
398	0.657142
399	0.657853
400	0.659294
401	0.661201
402	0.661906
403	0.661845
404	0.662131
405	0.663198
406	0.663889
407	0.665248
408	0.667237
409	0.667932
410	0.667810
411	0.668143
412	0.669151
413	0.669869
414	0.671136
415	0.673230
416	0.673814
417	0.673721
418	0.674036
419	0.674954
420	0.675620
421	0.676935
422	0.679016
423	0.679509
424	0.679404
425	0.679555
426	0.680175
427	0.680739
428	0.681853
429	0.683893
430	0.684273
431	0.684169
432	0.684317
433	0.684901
434	0.685388
435	0.686385
436	0.688459
437	0.688754
438	0.688676
439	0.688840
440	0.689556
441	0.689867
442	0.690873
443	0.692962
444	0.693174
445	0.693108
446	0.693441
447	0.693969
448	0.694164
449	0.695066
450	0.696917
451	0.696998
452	0.696934
453	0.697279
454	0.697784
455	0.698043
456	0.698913
457	0.700680
458	0.700644
459	0.700700
460	0.700972
461	0.701435
462	0.701699
463	0.702608
464	0.704170
465	0.704154
466	0.704164
467	0.704459
468	0.704934
469	0.705304
470	0.706225
471	0.707744
472	0.707779
473	0.707385
474	0.706890
475	0.706745
476	0.706487
477	0.706745
478	0.707888
479	0.708112
480	0.707873
481	0.707613
482	0.707724
483	0.707730
484	0.708218
485	0.709356
486	0.709574
487	0.709285
488	0.709014
489	0.708976
490	0.709031
491	0.709479
492	0.710572
493	0.710874
494	0.710607
495	0.710283
496	0.710320
497	0.710298
498	0.710709
499	0.711771
500	0.711998
501	0.711782
502	0.711414
503	0.711402
504	0.711359
505	0.711877
506	0.712673
507	0.712943
508	0.712758
509	0.712377
510	0.712251
511	0.712309
512	0.712866
513	0.713443
514	0.713657
515	0.713222
516	0.712673
517	0.712327
518	0.712418
519	0.712755
520	0.713477
521	0.713688
522	0.713252
523	0.712622
524	0.712421
525	0.712356
526	0.712704
527	0.713480
528	0.713730
529	0.713157
530	0.712585
531	0.712448
532	0.712450
533	0.712759
534	0.713583
535	0.713777
536	0.713257
537	0.712532
538	0.712384
539	0.712429
540	0.712741
541	0.713512
542	0.713798
543	0.713379
544	0.712515
545	0.712559
546	0.712469
547	0.712686
548	0.713395
549	0.713774
550	0.713331
551	0.712494
552	0.712577
553	0.712488
554	0.712814
555	0.713334
556	0.713808
557	0.713361
558	0.712534
559	0.712590
560	0.712594
561	0.712794
562	0.713222
563	0.713729
564	0.713267
565	0.712429
566	0.712523
567	0.712646
568	0.712818
569	0.713226
570	0.713849
571	0.713361
572	0.712515
573	0.712555
574	0.712676
575	0.712771
576	0.713203
577	0.713828
578	0.713389
579	0.712564
580	0.712526
581	0.712607
582	0.712747
583	0.713173
584	0.713777
585	0.713400
586	0.712655
587	0.712512
588	0.712655
589	0.712796
590	0.713228
591	0.713831
592	0.713486
593	0.712635
594	0.712404
595	0.712552
596	0.712750
597	0.713304
598	0.713851
599	0.713488
